…
## Examples

``` r
# Leachate-mixing fraction per downstream sample:
# \donttest{
add_lmf(
  df             = subset(leachate_demo, site_id == "downstream"),
  leachate_data  = subset(leachate_demo, site_id == "leachate"),
  reference_data = subset(leachate_demo, site_id == "reference")
)
#> # A tibble: 114 × 33
#>    sample_id site_id    datetime   analyte     value detected units.analyte
#>    <chr>     <chr>      <date>     <chr>       <dbl> <lgl>    <chr>        
#>  1 DS-01     downstream 2024-01-15 Na        149.    TRUE     mg/L         
#>  2 DS-01     downstream 2024-01-15 K          30.0   TRUE     mg/L         
#>  3 DS-01     downstream 2024-01-15 Ca         75.5   TRUE     mg/L         
#>  4 DS-01     downstream 2024-01-15 Mg         25.9   TRUE     mg/L         
#>  5 DS-01     downstream 2024-01-15 Cl        295.    TRUE     mg/L         
#>  6 DS-01     downstream 2024-01-15 SO4²⁻      54.2   TRUE     mg/L         
#>  7 DS-01     downstream 2024-01-15 F           0.859 TRUE     mg/L         
#>  8 DS-01     downstream 2024-01-15 NO3-N       1.57  TRUE     mg/L         
#>  9 DS-01     downstream 2024-01-15 NO2-N       0.155 TRUE     mg/L         
#> 10 DS-01     downstream 2024-01-15 CO3-CaCO3  16.3   TRUE     mg/L         
#> # ℹ 104 more rows
#> # ℹ 26 more variables: valence.analyte <dbl>, atomic_mass.analyte <dbl>,
#> #   lmf_naive <dbl>, lmf_reason <chr>, n_ions_used <int>,
#> #   n_ions_downweighted <int>, sigma_lmf <dbl>, chi2_per_df <dbl>,
#> #   uuid.analyte <chr>, uuid <chr>, value.guideline_1 <dbl>,
#> #   level_name.guideline_1 <chr>, guideline.guideline_1 <chr>,
#> #   comments.guideline_1 <glue>, value.guideline_2 <dbl>, …
…
